{
    "/js/app.js": "/js/app.js",
    "/css/main.css": "/css/main.css",
    "/css/admin.css": "/css/admin.css",
    "/js/admin.js": "/js/admin.js",
    "/css/vendor.css": "/css/vendor.css",
    "/fonts/fontawesome-webfont.eot": "/fonts/fontawesome-webfont.eot",
    "/fonts/fontawesome-webfont.svg": "/fonts/fontawesome-webfont.svg",
    "/fonts/fontawesome-webfont.ttf": "/fonts/fontawesome-webfont.ttf",
    "/fonts/fontawesome-webfont.woff": "/fonts/fontawesome-webfont.woff",
    "/fonts/fontawesome-webfont.woff2": "/fonts/fontawesome-webfont.woff2",
    "/fonts/FontAwesome.otf": "/fonts/FontAwesome.otf"
}
